{
  "projects": [
	{
	  "name": "Connected Brewing",
	  "by": "Trimm",
	  "places": 1,
	  "description": "Douwe Egberts is a well-known Dutch coffee brand. A major part of their business model is to offer coffee (vending) machines to businesses. As part of Douwe Egberts' service offering it is possible to include machine maintenance and periodic refilling of consumables in the machine lease arrangement. To capitalize on recent developments in sensor technology and digital business development, Douwe Egberts has developed an internet-connected coffee machine. This machine uses more than 50 sensors to monitor various aspects of the coffee brewing process. Examples of what is measured: water temperature, water usage, coffee bean temperature, coffee bean humidity, coffee grind size, overall machine power consumption, exact power consumption and deviant behavior of over 30 major electrical parts, overall machine usage statistics, and freshness of the coffee creamer canister. All the data which is collected by these machines is sent via an internet connection to a centralized Douwe Egberts database. Douwe Egberts has approached your team to design a web-based interface in which the coffee machine statistics are displayed in easy to understand visual representations of machine usage statistics. The purpose of this web interface is twofold: (1) inform the user of how they use their coffee machines, and (2) help Douwe Egberts reduce machine maintenance costs. You and your team are expected to decide how to turn the unprocessed Douwe Egberts machine data into valuable information. Further application requirements are: \n- It should be built as a webapplication;\n- It should be responsive in four states;\n- It should follow the general Douwe Egberts brand guidelines. "
	},
	{
	  "name": "Mesh Seismic Monitoring",
	  "by": "Trimm",
	  "places": 1,
	  "description": "At TRIMM we work on new ways of making our client's business more efficient. Oftentimes this involves experimentation with new technologies, like using LoRaWAN technology in novel ways. As a side-project, we are exploring the potential of using off-the-shelve hardware to develop low-cost seismic sensors which are interconnected through LoRa and collaborate in a mesh to accurately monitor seismic activity. The physical proof-of-concept of this product will be developed by a Computer Science student during a summer-internship in July of 2018. \nLooking forward, we want to produce a reasonable batch of seismic monitors to distribute among citizens of the Dutch province Groningen. These people endure frequent (small) earthquakes caused by extraction of natural gas from an underground gas deposit. Local home-owners are, understandably, upset about the damages caused and have lost faith in the accurate representation of seismic activity in the area, claiming that these reports are funded by the same corporations who are extracting the natural gas. To empower the people of Groningen we propose that they install a small and affordable seismic sensor box in their homes, through which they can contribute to the collective measurement and reporting of seismic activity. Using location data and triangulation, it will enable them to have accurate and unbiased measurements of earthquake magnitude and epicentres. \nFor the primary stakeholders to embrace this concept and for others to support the idea, we need your help in developing an online marketing campaign aimed at generating qualified leads for the sale of LoRa Enabled Seismic Sensors. Your team is asked to conceptualize the marketing campaign and to prepare this in a way that our designers and developers can build and implement it. This means developing wireframe designs, creating a storymap and slicing the storymap to plan sprints. During this process, you are asked to work at least 1 day per week at our office in Enschede. We will provide you with adequate coaching to help you develop your professional skills. "
	},
	{
	  "name": "Light as a Service",
	  "by": "Trimm",
	  "places": 1,
	  "description": "Dutch technology giant Philips is particularly well known for its lighting solutions. As part of Philips' strategy to lessen their impact on the environment, Philips Lighting recently redesigned part of their B2B business model. Philips is moving away from selling LED bulbs, instead offering a service delivery model in which light is provided as a service on a subscription basis. Lighting as a Service (LaaS) enables Philips to efficiently retrofit existing buildings and areas with modern LED equipment, improve the recycling of worn out LED equipment and reduce overall power draw of lighting solutions by monitoring and adjusting lighting requirements automatically. Philips Lighting has approached your team to design a LaaS Calculation Tool. The purpose of this tool is to assist future clients in calculating their potential cost savings by switching to LaaS. The requirements for this application are as follows: \n- It should be built as a webapplication; \n- It should work inside an iframe, as this is required by the CMS of choice: Adobe Experience Manager; \n- It should be responsive in four states; \n- It should follow the general Philips brand guidelines. \n"
	},
	{
	  "name": "my.utwente.nl",
	  "by": "Trimm",
	  "places": 1,
	  "description": "You should all be familiar with the University of Twente and www.utwente.nl. Did you know that TRIMM designed this website? Among other projects, TRIMM has recently also completed the redesign of the Utwente employee-portal in the past year. The next step would be to overhaul the students' portal my.utwente.nl. This webapplication is a portal where students can obtain a 360-degree overview of the information they find most important, like grades, class-cancellations, study schedule, exam-planning, etc. The University of Twente Marketing & Communications department has approached your team to overhaul the my.utwente.nl portal. Since you are the target audience, making personas and designing a user journey should be easy for you. However, the University of Twente wants you to complete this redesign on a relatively low budget. A potential solution to this budgetary constraint is to source data from other UT platforms (e.g. Blackboard, Osiris, etc.). The main technical requirements for this portal are as follows: \n- It should be built as a webapplication with a mobile first approach; \n- Besides working flawlessly on mobile devices, it should also work well on tablets, small screen PCs and large screen PCs (i.e.: responsive in four states); \n- It should follow the general University of Twente brand guidelines. "
	},
	{
	  "name": "WehKamp",
	  "by": "WehKamp",
	  "places": 4,
	  "description": "WehKamp is a 65-year retailer. And is the only one that transformed from a catalogue-only retailer to an online-only retailer. In the years that we worked on our online platform, we choose certain solutions and since everything improves it’s also time to improve our platform. In order to do this, we decided to change our platform form a monolith into a microservices-based platform. This means that all parts of the site are actually a collection of microsites. But we also looked at ways to improve the customer experience overall on the website. Each microsite is developed and maintained by a specific team. One of the microsites contains the search experience. And this functionality is combined in one team with the navigation functionalities of the website.\n\nBeside a roadmap the tells us about the move from monolith platform to microsite platform and the things we need to do to improve the overall customer experience, there is also a roadmap for each team.\nEach team is organised with an agile perspective in mind. This means that most of the teams work within the Scrum framework. This is the base for their development process. Within this team, you have various roles; product owner (PO), scrum master (sm) and team members. In May 2017 the team Nav&Search started working with a roadmap that was written by the PO."
	},
	{
	  "name": "Irish Rail",
	  "by": "Sqills",
	  "places": 3,
	  "description": "Iarnród Éireann Irish Rail (IÉ) offers Commuter and Intercity rail products and services to several customer segments in Ireland including children, adults, businesses and others who can avail of Free Travel. These products and services can be purchased through various channels including online, call centre, in station and via the national integrated smart card operated by the National Transport Authority (NTA), called LEAP.\n\nIÉ’s current commercial capabilities are constrained by technological limitations and limited integration. Systems have typically been implemented and delivered in isolation of each other which has led to a proliferation of different applications and data silos. There is a considerable duplication of resource effort in maintaining consistency across a disparate number of systems particularly with regards to channel specific pricing and also with regard to revenue reporting and settlement. Allied to this, the current Online Reservation System is not in line with modern customer experience expectations and provides only rudimentary revenue/yield management capabilities."
	},
	{
	  "name": "SugarCRM",
	  "by": "BrixCRM",
	  "places": 3,
	  "description": "BrixCRM is a business in IT of around thirty employees located in Almelo that develops and implements Customer Relationship Management (CRM) and marketing automation systems for a wide variety of businesses as well as for governmental agencies.\nIn short, CRM systems are customer-focussed systems that collect, store, and process data to accumulate knowledge about a business' customers with the aim to enhance a customer's satisfaction and loyalty by offering a more responsive and customised service to each customer, whereas marketing automation allows you to, among other things, monitor the traffic on your website and set-up automatic marketing campaigns."
	}
  ],
  "groups": [
	{
	  "code": "2553",
	  "preferences": [],
	  "assignment": null
	},
	{
	  "code": "8745",
	  "preferences": [],
	  "assignment": null
	},
	{
	  "code": "3375",
	  "preferences": [],
	  "assignment": null
	},
	{
	  "code": "4415",
	  "preferences": [],
	  "assignment": null
	},
	{
	  "code": "9929",
	  "preferences": [],
	  "assignment": null
	},
	{
	  "code": "4446",
	  "preferences": [],
	  "assignment": null
	},
	{
	  "code": "7662",
	  "preferences": [],
	  "assignment": null
	},
	{
	  "code": "2957",
	  "preferences": [],
	  "assignment": null
	},
	{
	  "code": "2392",
	  "preferences": [],
	  "assignment": null
	},
	{
	  "code": "6835",
	  "preferences": [],
	  "assignment": null
	},
	{
	  "code": "4418",
	  "preferences": [],
	  "assignment": null
	},
	{
	  "code": "7759",
	  "preferences": [],
	  "assignment": null
	},
	{
	  "code": "4395",
	  "preferences": [],
	  "assignment": null
	},
	{
	  "code": "1547",
	  "preferences": [],
	  "assignment": null
	}
  ],
  "status": {
	"title": "BIITPM"
  }
}